^Q:\ACESSTUDENT\55-503332_PROGRAMMINGFORGAMES\STUDENTS\B8045432\P4G\TUTORIALS\ASSESMENTS\PONG\PONG_GAME\PONG_GAME\VEC2F.CPP
/c /I"Q:\ACESSTUDENT\55-503332_PROGRAMMINGFORGAMES\STUDENTS\B8045432\P4G\TUTORIALS\ASSESMENTS\PONG\SFML-2.5.1\INCLUDE" /ZI /JMC /nologo /W3 /WX- /diagnostics:classic /sdl /Od /Oy- /D _MBCS /Gm- /EHsc /RTC1 /MDd /GS /fp:precise /permissive- /Zc:wchar_t /Zc:forScope /Zc:inline /Fo"DEBUG\\" /Fd"DEBUG\VC141.PDB" /Gd /TP /analyze- /FC Q:\ACESSTUDENT\55-503332_PROGRAMMINGFORGAMES\STUDENTS\B8045432\P4G\TUTORIALS\ASSESMENTS\PONG\PONG_GAME\PONG_GAME\VEC2F.CPP
^Q:\ACESSTUDENT\55-503332_PROGRAMMINGFORGAMES\STUDENTS\B8045432\P4G\TUTORIALS\ASSESMENTS\PONG\PONG_GAME\PONG_GAME\BACKGROUND.CPP
/c /I"Q:\ACESSTUDENT\55-503332_PROGRAMMINGFORGAMES\STUDENTS\B8045432\P4G\TUTORIALS\ASSESMENTS\PONG\SFML-2.5.1\INCLUDE" /ZI /JMC /nologo /W3 /WX- /diagnostics:classic /sdl /Od /Oy- /D _MBCS /Gm- /EHsc /RTC1 /MDd /GS /fp:precise /permissive- /Zc:wchar_t /Zc:forScope /Zc:inline /Fo"DEBUG\\" /Fd"DEBUG\VC141.PDB" /Gd /TP /analyze- /FC Q:\ACESSTUDENT\55-503332_PROGRAMMINGFORGAMES\STUDENTS\B8045432\P4G\TUTORIALS\ASSESMENTS\PONG\PONG_GAME\PONG_GAME\BACKGROUND.CPP
^Q:\ACESSTUDENT\55-503332_PROGRAMMINGFORGAMES\STUDENTS\B8045432\P4G\TUTORIALS\ASSESMENTS\PONG\PONG_GAME\PONG_GAME\GAMEOBJ.CPP
/c /I"Q:\ACESSTUDENT\55-503332_PROGRAMMINGFORGAMES\STUDENTS\B8045432\P4G\TUTORIALS\ASSESMENTS\PONG\SFML-2.5.1\INCLUDE" /ZI /JMC /nologo /W3 /WX- /diagnostics:classic /sdl /Od /Oy- /D _MBCS /Gm- /EHsc /RTC1 /MDd /GS /fp:precise /permissive- /Zc:wchar_t /Zc:forScope /Zc:inline /Fo"DEBUG\\" /Fd"DEBUG\VC141.PDB" /Gd /TP /analyze- /FC Q:\ACESSTUDENT\55-503332_PROGRAMMINGFORGAMES\STUDENTS\B8045432\P4G\TUTORIALS\ASSESMENTS\PONG\PONG_GAME\PONG_GAME\GAMEOBJ.CPP
^Q:\ACESSTUDENT\55-503332_PROGRAMMINGFORGAMES\STUDENTS\B8045432\P4G\TUTORIALS\ASSESMENTS\PONG\PONG_GAME\PONG_GAME\SCORE.CPP
/c /I"Q:\ACESSTUDENT\55-503332_PROGRAMMINGFORGAMES\STUDENTS\B8045432\P4G\TUTORIALS\ASSESMENTS\PONG\SFML-2.5.1\INCLUDE" /ZI /JMC /nologo /W3 /WX- /diagnostics:classic /sdl /Od /Oy- /D _MBCS /Gm- /EHsc /RTC1 /MDd /GS /fp:precise /permissive- /Zc:wchar_t /Zc:forScope /Zc:inline /Fo"DEBUG\\" /Fd"DEBUG\VC141.PDB" /Gd /TP /analyze- /FC Q:\ACESSTUDENT\55-503332_PROGRAMMINGFORGAMES\STUDENTS\B8045432\P4G\TUTORIALS\ASSESMENTS\PONG\PONG_GAME\PONG_GAME\SCORE.CPP
^Q:\ACESSTUDENT\55-503332_PROGRAMMINGFORGAMES\STUDENTS\B8045432\P4G\TUTORIALS\ASSESMENTS\PONG\PONG_GAME\PONG_GAME\BALL.CPP
/c /I"Q:\ACESSTUDENT\55-503332_PROGRAMMINGFORGAMES\STUDENTS\B8045432\P4G\TUTORIALS\ASSESMENTS\PONG\SFML-2.5.1\INCLUDE" /ZI /JMC /nologo /W3 /WX- /diagnostics:classic /sdl /Od /Oy- /D _MBCS /Gm- /EHsc /RTC1 /MDd /GS /fp:precise /permissive- /Zc:wchar_t /Zc:forScope /Zc:inline /Fo"DEBUG\\" /Fd"DEBUG\VC141.PDB" /Gd /TP /analyze- /FC Q:\ACESSTUDENT\55-503332_PROGRAMMINGFORGAMES\STUDENTS\B8045432\P4G\TUTORIALS\ASSESMENTS\PONG\PONG_GAME\PONG_GAME\BALL.CPP
^Q:\ACESSTUDENT\55-503332_PROGRAMMINGFORGAMES\STUDENTS\B8045432\P4G\TUTORIALS\ASSESMENTS\PONG\PONG_GAME\PONG_GAME\APPLICATION.CPP
/c /I"Q:\ACESSTUDENT\55-503332_PROGRAMMINGFORGAMES\STUDENTS\B8045432\P4G\TUTORIALS\ASSESMENTS\PONG\SFML-2.5.1\INCLUDE" /ZI /JMC /nologo /W3 /WX- /diagnostics:classic /sdl /Od /Oy- /D _MBCS /Gm- /EHsc /RTC1 /MDd /GS /fp:precise /permissive- /Zc:wchar_t /Zc:forScope /Zc:inline /Fo"DEBUG\\" /Fd"DEBUG\VC141.PDB" /Gd /TP /analyze- /FC Q:\ACESSTUDENT\55-503332_PROGRAMMINGFORGAMES\STUDENTS\B8045432\P4G\TUTORIALS\ASSESMENTS\PONG\PONG_GAME\PONG_GAME\APPLICATION.CPP
^Q:\ACESSTUDENT\55-503332_PROGRAMMINGFORGAMES\STUDENTS\B8045432\P4G\TUTORIALS\ASSESMENTS\PONG\PONG_GAME\PONG_GAME\BOUNDARY.CPP
/c /I"Q:\ACESSTUDENT\55-503332_PROGRAMMINGFORGAMES\STUDENTS\B8045432\P4G\TUTORIALS\ASSESMENTS\PONG\SFML-2.5.1\INCLUDE" /ZI /JMC /nologo /W3 /WX- /diagnostics:classic /sdl /Od /Oy- /D _MBCS /Gm- /EHsc /RTC1 /MDd /GS /fp:precise /permissive- /Zc:wchar_t /Zc:forScope /Zc:inline /Fo"DEBUG\\" /Fd"DEBUG\VC141.PDB" /Gd /TP /analyze- /FC Q:\ACESSTUDENT\55-503332_PROGRAMMINGFORGAMES\STUDENTS\B8045432\P4G\TUTORIALS\ASSESMENTS\PONG\PONG_GAME\PONG_GAME\BOUNDARY.CPP
^Q:\ACESSTUDENT\55-503332_PROGRAMMINGFORGAMES\STUDENTS\B8045432\P4G\TUTORIALS\ASSESMENTS\PONG\PONG_GAME\PONG_GAME\GAME.CPP
/c /I"Q:\ACESSTUDENT\55-503332_PROGRAMMINGFORGAMES\STUDENTS\B8045432\P4G\TUTORIALS\ASSESMENTS\PONG\SFML-2.5.1\INCLUDE" /ZI /JMC /nologo /W3 /WX- /diagnostics:classic /sdl /Od /Oy- /D _MBCS /Gm- /EHsc /RTC1 /MDd /GS /fp:precise /permissive- /Zc:wchar_t /Zc:forScope /Zc:inline /Fo"DEBUG\\" /Fd"DEBUG\VC141.PDB" /Gd /TP /analyze- /FC Q:\ACESSTUDENT\55-503332_PROGRAMMINGFORGAMES\STUDENTS\B8045432\P4G\TUTORIALS\ASSESMENTS\PONG\PONG_GAME\PONG_GAME\GAME.CPP
^Q:\ACESSTUDENT\55-503332_PROGRAMMINGFORGAMES\STUDENTS\B8045432\P4G\TUTORIALS\ASSESMENTS\PONG\PONG_GAME\PONG_GAME\NAMESTATE.CPP
/c /I"Q:\ACESSTUDENT\55-503332_PROGRAMMINGFORGAMES\STUDENTS\B8045432\P4G\TUTORIALS\ASSESMENTS\PONG\SFML-2.5.1\INCLUDE" /ZI /JMC /nologo /W3 /WX- /diagnostics:classic /sdl /Od /Oy- /D _MBCS /Gm- /EHsc /RTC1 /MDd /GS /fp:precise /permissive- /Zc:wchar_t /Zc:forScope /Zc:inline /Fo"DEBUG\\" /Fd"DEBUG\VC141.PDB" /Gd /TP /analyze- /FC Q:\ACESSTUDENT\55-503332_PROGRAMMINGFORGAMES\STUDENTS\B8045432\P4G\TUTORIALS\ASSESMENTS\PONG\PONG_GAME\PONG_GAME\NAMESTATE.CPP
^Q:\ACESSTUDENT\55-503332_PROGRAMMINGFORGAMES\STUDENTS\B8045432\P4G\TUTORIALS\ASSESMENTS\PONG\PONG_GAME\PONG_GAME\PADDELS.CPP
/c /I"Q:\ACESSTUDENT\55-503332_PROGRAMMINGFORGAMES\STUDENTS\B8045432\P4G\TUTORIALS\ASSESMENTS\PONG\SFML-2.5.1\INCLUDE" /ZI /JMC /nologo /W3 /WX- /diagnostics:classic /sdl /Od /Oy- /D _MBCS /Gm- /EHsc /RTC1 /MDd /GS /fp:precise /permissive- /Zc:wchar_t /Zc:forScope /Zc:inline /Fo"DEBUG\\" /Fd"DEBUG\VC141.PDB" /Gd /TP /analyze- /FC Q:\ACESSTUDENT\55-503332_PROGRAMMINGFORGAMES\STUDENTS\B8045432\P4G\TUTORIALS\ASSESMENTS\PONG\PONG_GAME\PONG_GAME\PADDELS.CPP
^Q:\ACESSTUDENT\55-503332_PROGRAMMINGFORGAMES\STUDENTS\B8045432\P4G\TUTORIALS\ASSESMENTS\PONG\PONG_GAME\PONG_GAME\PAUSEDSTATE.CPP
/c /I"Q:\ACESSTUDENT\55-503332_PROGRAMMINGFORGAMES\STUDENTS\B8045432\P4G\TUTORIALS\ASSESMENTS\PONG\SFML-2.5.1\INCLUDE" /ZI /JMC /nologo /W3 /WX- /diagnostics:classic /sdl /Od /Oy- /D _MBCS /Gm- /EHsc /RTC1 /MDd /GS /fp:precise /permissive- /Zc:wchar_t /Zc:forScope /Zc:inline /Fo"DEBUG\\" /Fd"DEBUG\VC141.PDB" /Gd /TP /analyze- /FC Q:\ACESSTUDENT\55-503332_PROGRAMMINGFORGAMES\STUDENTS\B8045432\P4G\TUTORIALS\ASSESMENTS\PONG\PONG_GAME\PONG_GAME\PAUSEDSTATE.CPP
^Q:\ACESSTUDENT\55-503332_PROGRAMMINGFORGAMES\STUDENTS\B8045432\P4G\TUTORIALS\ASSESMENTS\PONG\PONG_GAME\PONG_GAME\PLAYSTATE.CPP
/c /I"Q:\ACESSTUDENT\55-503332_PROGRAMMINGFORGAMES\STUDENTS\B8045432\P4G\TUTORIALS\ASSESMENTS\PONG\SFML-2.5.1\INCLUDE" /ZI /JMC /nologo /W3 /WX- /diagnostics:classic /sdl /Od /Oy- /D _MBCS /Gm- /EHsc /RTC1 /MDd /GS /fp:precise /permissive- /Zc:wchar_t /Zc:forScope /Zc:inline /Fo"DEBUG\\" /Fd"DEBUG\VC141.PDB" /Gd /TP /analyze- /FC Q:\ACESSTUDENT\55-503332_PROGRAMMINGFORGAMES\STUDENTS\B8045432\P4G\TUTORIALS\ASSESMENTS\PONG\PONG_GAME\PONG_GAME\PLAYSTATE.CPP
^Q:\ACESSTUDENT\55-503332_PROGRAMMINGFORGAMES\STUDENTS\B8045432\P4G\TUTORIALS\ASSESMENTS\PONG\PONG_GAME\PONG_GAME\MAIN.CPP
/c /I"Q:\ACESSTUDENT\55-503332_PROGRAMMINGFORGAMES\STUDENTS\B8045432\P4G\TUTORIALS\ASSESMENTS\PONG\SFML-2.5.1\INCLUDE" /ZI /JMC /nologo /W3 /WX- /diagnostics:classic /sdl /Od /Oy- /D _MBCS /Gm- /EHsc /RTC1 /MDd /GS /fp:precise /permissive- /Zc:wchar_t /Zc:forScope /Zc:inline /Fo"DEBUG\\" /Fd"DEBUG\VC141.PDB" /Gd /TP /analyze- /FC Q:\ACESSTUDENT\55-503332_PROGRAMMINGFORGAMES\STUDENTS\B8045432\P4G\TUTORIALS\ASSESMENTS\PONG\PONG_GAME\PONG_GAME\MAIN.CPP
^Q:\ACESSTUDENT\55-503332_PROGRAMMINGFORGAMES\STUDENTS\B8045432\P4G\TUTORIALS\ASSESMENTS\PONG\PONG_GAME\PONG_GAME\STARTGAMESTATE.CPP
/c /I"Q:\ACESSTUDENT\55-503332_PROGRAMMINGFORGAMES\STUDENTS\B8045432\P4G\TUTORIALS\ASSESMENTS\PONG\SFML-2.5.1\INCLUDE" /ZI /JMC /nologo /W3 /WX- /diagnostics:classic /sdl /Od /Oy- /D _MBCS /Gm- /EHsc /RTC1 /MDd /GS /fp:precise /permissive- /Zc:wchar_t /Zc:forScope /Zc:inline /Fo"DEBUG\\" /Fd"DEBUG\VC141.PDB" /Gd /TP /analyze- /FC Q:\ACESSTUDENT\55-503332_PROGRAMMINGFORGAMES\STUDENTS\B8045432\P4G\TUTORIALS\ASSESMENTS\PONG\PONG_GAME\PONG_GAME\STARTGAMESTATE.CPP
